-------------------------------------------------------------------------------
Test set: com.emilia.honestsign.HonestSignApplicationTests
-------------------------------------------------------------------------------
Tests run: 1, Failures: 0, Errors: 0, Skipped: 0, Time elapsed: 0.881 s - in com.emilia.honestsign.HonestSignApplicationTests
